[
  {
    "code": "BINF 531",
    "title": "Statistical Bioinformatics",
    "offered_by": "Animal Science",
    "offered_recently": true,
    "target_audience": "Undergraduate students in animal science",
    "target_audience_coded": "undergraduate",
    "background": "Moderate",
    "format": "Winter semester 3 credits",
    "credits": "3",
    "format_type": "credit",
    "length": "13 weeks",
    "general_description": "Bioinformatics : Underlying concepts and techniques for the analyses of large-scale data sets, generated from \"omics\" platforms (e.g., metagenomics, metabolomics, transcriptomics, etc.), as well as different approaches for working with high-dimensional data. Students will gain experience in such software packages as R and Bioconductor for statistical analysis and data visualization.",
    "topics": "statistics",
    "subtopics": "genomics",
    "software": "",
    "prerequisites": "AEMA 310 or equivalent; LSCI 204, LSCI 211, LSCI 230",
    "instructors": [
      {
        "name": "Jianguo Xia",
        "email": "jianguo.xia@mcgill.ca",
        "site": "https://www.mcgill.ca/parasitology/faculty/jianguo-jeff-xia"
      }
    ],
    "open_to": "Open to U3 students",
    "feedback": "",
    "contact_instructors": "",
    "notes": "Have syllabus",
    "contacted_professor": true,
    "institution": "mcgill",
    "offered": {
      "url": "https://www.mcgill.ca/study/2020-2021/courses/binf-531",
      "semesters": [
        "Winter 2021",
        "Summer 2021"
      ]
    }
  },
  {
    "code": "BIOC 600",
    "title": "Advanced Strategies in Genetics and Genomics",
    "offered_by": "Biochemistry",
    "offered_recently": true,
    "target_audience": "Graduate students in biochemistry. Limited to 15 students.",
    "target_audience_coded": "graduate",
    "background": "Moderate",
    "format": "not currently offered",
    "credits": "3",
    "format_type": "credit",
    "length": "13 weeks",
    "general_description": "Biochemistry (genomics) : Advanced technologies and methods in genomics research, presented by experts actively pursuing the experimental approaches discussed.",
    "topics": "genomic analysis",
    "subtopics": "genomics technologies",
    "software": "",
    "prerequisites": "BIOC 454",
    "instructors": [
      {
        "name": "No professor associated",
        "email": null,
        "site": null
      }
    ],
    "open_to": "Closed to Biochemistry graduate program",
    "feedback": "",
    "contact_instructors": "",
    "notes": "",
    "contacted_professor": false,
    "institution": "mcgill",
    "offered": {
      "url": "https://www.mcgill.ca/study/2020-2021/courses/bioc-600",
      "semesters": [
        "Fall 2020",
        "Summer 2021"
      ]
    }
  },
  {
    "code": "BIOC 603",
    "title": "Genomics and Gene Expression",
    "offered_by": "Biochemistry",
    "offered_recently": true,
    "target_audience": "Graduate students in biochemistry",
    "target_audience_coded": "graduate",
    "background": "Moderate",
    "format": "Fall semester 3 credits",
    "credits": "3",
    "format_type": "credit",
    "length": "13 weeks",
    "general_description": "Biochemistry : Examination of recent developments in analysis of eukaryotic cell genomes and control of gene expression during differentiation and growth control. Molecular genetics; genomics and the bioinformatics of analysis of genomic and functional-genomic data; mechanisms and signal-transduction pathways for regulation of gene expression; applications to human disease with a strong emphasis on cancer.",
    "topics": "bioinformatics",
    "subtopics": "gene expression",
    "software": "",
    "prerequisites": "BIOC 454",
    "instructors": [
      {
        "name": "Luke McCaffrey",
        "email": "luke.mccaffrey@mcgill.ca",
        "site": "https://mcgillgcrc.com/research/members/mccaffrey"
      },
      {
        "name": "William Joseph Muller",
        "email": "william.muller@mcgill.ca",
        "site": "https://www.mcgill.ca/biochemistry/about-us/department/faculty-members/muller"
      },
      {
        "name": "Imed Eddine Gallouzi",
        "email": "imed.gallouzi@mcgill.ca",
        "site": "https://www.mcgill.ca/biochemistry/about-us/department/faculty-members/gallouzi"
      },
      {
        "name": "Maxime Bouchard",
        "email": "maxime.bouchard@mcgill.ca",
        "site": "https://www.mcgill.ca/biochemistry/about-us/department/faculty-members/bouchard"
      },
      {
        "name": "Peter Siegel",
        "email": "peter.siegel@mcgill.ca",
        "site": "https://www.mcgill.ca/endocrinology/facultydir/peter-siegel"
      },
      {
        "name": "Russell Jones",
        "email": "sidong.huang@mcgill.carussell.jones@mcgill.ca",
        "site": "http://www.joneslabmcgill.com"
      },
      {
        "name": "Sidong Huang",
        "email": null,
        "site": "https://www.mcgill.ca/biochemistry/about-us/department/faculty-members/sidong-huang"
      }
    ],
    "open_to": "",
    "feedback": "",
    "contact_instructors": "",
    "notes": "",
    "contacted_professor": true,
    "institution": "mcgill",
    "offered": {
      "url": "https://www.mcgill.ca/study/2020-2021/courses/bioc-603",
      "semesters": [
        "Fall 2020",
        "Summer 2021"
      ]
    }
  },
  {
    "code": "BIOC 605",
    "title": "Protein Biology and Proteomics",
    "offered_by": "Biochemistry",
    "offered_recently": true,
    "target_audience": "Graduate students in biochemistry",
    "target_audience_coded": "graduate",
    "background": "Moderate",
    "format": "Winter semester 3 credits. Capacity is limited to 12.",
    "credits": "3",
    "format_type": "credit",
    "length": "13 weeks",
    "general_description": "Biochemistry (proteomics) : Examination of recent developments in protein biology and proteomics analysis. Proteomics, modeling and biophysical approaches to characterize the functional interactions of biological macromolecules; applications to biological problems. Lectures and in-class discussions are supplemented by practical training in proteomics.",
    "topics": "proteomics",
    "subtopics": "structure models",
    "software": "",
    "prerequisites": "BIOC 450",
    "instructors": [
      {
        "name": "Jason Young",
        "email": "jason.young2@mcgill.ca",
        "site": "https://www.mcgill.ca/biochemistry/about-us/department/faculty-members/young"
      }
    ],
    "open_to": "Open to all graduate students except for Biotechnology non-thesis MSc students",
    "feedback": "",
    "contact_instructors": "The section on molecular modeling is at a \u2018consumer\u2019 level, such that non-specialists become familiar with concepts and literature, but don\u2019t apply the methods. The proteomics section involves bioinformatics analysis of mass spec data using standard software packages.",
    "notes": "Have syllabus",
    "contacted_professor": true,
    "institution": "mcgill",
    "offered": {
      "url": "https://www.mcgill.ca/study/2020-2021/courses/bioc-605",
      "semesters": [
        "Winter 2021",
        "Summer 2021"
      ]
    }
  },
  {
    "code": "BIEN 410",
    "title": "Computational Methods in Bioengineering",
    "offered_by": "Bioengineering",
    "offered_recently": true,
    "target_audience": "Undergraduate students in bioengineering",
    "target_audience_coded": "undergraduate",
    "background": "Moderate",
    "format": "Fall semester 3 credits",
    "credits": "3",
    "format_type": "credit",
    "length": "13 weeks",
    "general_description": "Bioengineering (computational): Introduction to computational biomolecular engineering. Biomolecular simulation: deterministic simulation, stochastic simulation. Biomolecular modeling: energy minimization, coarse-grained methods. Computational biomolecular design: protein design, protein docking, and drug design. Computational systems and synthetic biology: computer simulation of biomolecular circuits.",
    "topics": "biomolecular engineering",
    "subtopics": "simulations",
    "software": "",
    "prerequisites": "BIEN 310 and COMP 208",
    "instructors": [
      {
        "name": "No professor associated",
        "email": null,
        "site": null
      }
    ],
    "open_to": "?",
    "feedback": "",
    "contact_instructors": "",
    "notes": "",
    "contacted_professor": false,
    "institution": "mcgill",
    "offered": {
      "url": "https://www.mcgill.ca/study/2020-2021/courses/bien-410",
      "semesters": [
        "Fall 2020",
        "Summer 2021"
      ]
    }
  },
  {
    "code": "BIOL 373",
    "title": "Biometry",
    "offered_by": "Biology",
    "offered_recently": true,
    "target_audience": "Undergraduate students in geography, urban systems, environment, sustainability, , cell biology, biochemistry, biology, immunology, etc",
    "target_audience_coded": "undergraduate",
    "background": "Limited",
    "format": "Fall semester 3 credits",
    "credits": "3",
    "format_type": "credit",
    "length": "13 weeks",
    "general_description": "Biology (Statistical methods): Elementary statistical methods in biology. Introduction to the analysis of biological data with emphasis on the assumptions behind statistical tests and models. Use of statistical techniques typically available on computer packages.",
    "topics": "statistics",
    "subtopics": "basic",
    "software": "",
    "prerequisites": "MATH 112",
    "instructors": [
      {
        "name": "Brian Leung",
        "email": "brian.leung2@mcgill.ca",
        "site": "http://biology.mcgill.ca/faculty/leung/"
      }
    ],
    "open_to": "Open",
    "feedback": "",
    "contact_instructors": "",
    "notes": "Have syllabus",
    "contacted_professor": true,
    "institution": "mcgill",
    "offered": null
  },
  {
    "code": "BIOL 551",
    "title": "Principles of Cellular Control",
    "offered_by": "Biology",
    "offered_recently": true,
    "target_audience": "Undergraduate students in engineering (biotechnology), anatomy and cell biology, quantitative biology, biophysical chemistry, computer science, biology, biological physics, physiology",
    "target_audience_coded": "undergraduate",
    "background": "Moderate",
    "format": "not currently offered",
    "credits": "3",
    "format_type": "credit",
    "length": "13 weeks",
    "general_description": "Biology: Fundamental principles of cellular control, with cell cycle control as a major theme. Biological and physical concepts are brought to bear on control in healthy cells..",
    "topics": "biophysics",
    "subtopics": "cellular systems",
    "software": "",
    "prerequisites": "CHEM 115 or 120, MATH 133 and 141, PHYS 142; or equivalents. BIOL 201 or ANAT/BIOC 212. Recommended: COMP 202, PHYS 230 and BIOL/PHYS 319.",
    "instructors": [
      {
        "name": "Jackie Vogel",
        "email": "jackie.vogel@mcgill.ca",
        "site": "http://aguada.biol.mcgill.ca"
      },
      {
        "name": "Paul Francois",
        "email": "paul.francois2@mcgill.ca",
        "site": "https://www.mcgill.ca/francois-group/"
      }
    ],
    "open_to": "?",
    "feedback": "",
    "contact_instructors": "",
    "notes": "",
    "contacted_professor": false,
    "institution": "mcgill",
    "offered": null
  },
  {
    "code": "BIOL 568",
    "title": "Topics on the Human Genome",
    "offered_by": "Biology",
    "offered_recently": true,
    "target_audience": "Undergraduate students in biology, computer science and biology Graduate students in biotechnology",
    "target_audience_coded": "undergraduate and graduate",
    "background": "Moderate",
    "format": "Winter semester 3 credits",
    "credits": "3",
    "format_type": "credit",
    "length": "13 weeks",
    "general_description": "Biology: Cellular and molecular approaches to characterization of the human genome.",
    "topics": "genomics",
    "subtopics": "genomics technologies",
    "software": "",
    "prerequisites": "BIOL 202, BIOL 300, BIOL 370",
    "instructors": [
      {
        "name": "Rima Slim",
        "email": "rima.slim@mcgill.ca",
        "site": "https://www.mcgill.ca/expmed/dr-rima-slim"
      }
    ],
    "open_to": "",
    "feedback": "",
    "contact_instructors": "",
    "notes": "",
    "contacted_professor": false,
    "institution": "mcgill",
    "offered": {
      "url": "https://www.mcgill.ca/study/2020-2021/courses/biol-568",
      "semesters": [
        "Winter 2021",
        "Summer 2021"
      ]
    }
  },
  {
    "code": "BIOL 592",
    "title": "Integrated bioinformatics",
    "offered_by": "Biology",
    "offered_recently": true,
    "target_audience": "No prior CS experience required",
    "target_audience_coded": "undergraduate",
    "background": "Limited",
    "format": "Fall semester 3 credits",
    "credits": "3",
    "format_type": "credit",
    "length": "13 weeks",
    "general_description": "Biology (bioinformatics) : 'Post-genomic' bioinformatics. Concepts behind large-scale computational analysis and comparison of genomes/proteomes (and beyond), and the implications for our understanding of the basic processes of molecular and cell biology and the evolution of those processes.",
    "topics": "comp bio",
    "subtopics": "bioinformatics tools",
    "software": "",
    "prerequisites": "BIOL 301",
    "instructors": [
      {
        "name": "Paul Harrison",
        "email": "paul.harrison@mcgill.ca",
        "site": "http://biology.mcgill.ca/faculty/harrison/"
      }
    ],
    "open_to": "Not open to students who have taken or are taking BINF 511",
    "feedback": "",
    "contact_instructors": "",
    "notes": "",
    "contacted_professor": true,
    "institution": "mcgill",
    "offered": {
      "url": "https://www.mcgill.ca/study/2020-2021/courses/biol-592",
      "semesters": [
        "Fall 2020",
        "Summer 2021"
      ]
    }
  },
  {
    "code": "BMDE 501",
    "title": "Selected Topics in Biomedical Engineering",
    "offered_by": "Biomedical Engineering",
    "offered_recently": true,
    "target_audience": "Undergraduate students in biomedical engineering Graduate students in biomedical engineering",
    "target_audience_coded": "undergraduate",
    "background": "Moderate",
    "format": "Fall semester 3 credits",
    "credits": "3",
    "format_type": "credit",
    "length": "13 weeks",
    "general_description": "Biomedical Engineering : An overview of how techniques from engineering and the physical sciences are applied to the study of selected physiological systems and biological signals. Using specific biological examples, systems will be studied using: signal or finite-element analysis, system and identification, modelling and simulation, computer control of experiments and data acquisition.",
    "topics": "dynamic modeling",
    "subtopics": "simulations",
    "software": "",
    "prerequisites": "None",
    "instructors": [
      {
        "name": "Robert Funnell",
        "email": "robert.funnell@mcgill.ca",
        "site": "https://www.mcgill.ca/bbme/w-robert-j-funnell"
      }
    ],
    "open_to": "Open. Intended for Master's students in Biological & Biomedical Engineering and for senior undergraduates",
    "feedback": "",
    "contact_instructors": "",
    "notes": "Have Syllabus",
    "contacted_professor": true,
    "institution": "mcgill",
    "offered": {
      "url": "https://www.mcgill.ca/study/2020-2021/courses/bmde-501",
      "semesters": [
        "Fall 2020",
        "Summer 2021"
      ]
    }
  },
  {
    "code": "BMDE 502",
    "title": "BME Modeling and Identification",
    "offered_by": "Biomedical Engineering",
    "offered_recently": true,
    "target_audience": "Undergraute students in biomedical engineering Graduate students in biomedical engineering, cell biology",
    "target_audience_coded": "undergraduate",
    "background": "Expert",
    "format": "Winter semester 3 credits",
    "credits": "3",
    "format_type": "credit",
    "length": "13 weeks",
    "general_description": "Biomedical Engineering : Methodologies in systems or distributed multidimensional processes. System themes include parametric vs. non-parametric system representations; linear/non-linear; noise, transients and time variation; mapping from continuous to discrete models; and relevant identification approaches in continuous and discrete time formulations.",
    "topics": "dynamic modeling",
    "subtopics": "complex systems",
    "software": "",
    "prerequisites": "Basic stats; basic signal system theory (e.g. ECSE303/304, BIEN350, BMDE519 or similar)",
    "instructors": [
      {
        "name": "Henrietta L Galiana",
        "email": "henrietta.galiana@mcgill.ca",
        "site": "https://www.mcgill.ca/bbme/henrietta-l-galiana"
      },
      {
        "name": "Georgios Mitsis",
        "email": "georgios.mitsis@mcgill.ca",
        "site": "https://www.mcgill.ca/bioengineering/people/faculty/georgios-mitsis"
      }
    ],
    "open_to": "Open to students to any McGill department that lists it as a technical complementary. Also open to students from other Universities around Montreal.",
    "feedback": "",
    "contact_instructors": "Have syllabus",
    "notes": "",
    "contacted_professor": true,
    "institution": "mcgill",
    "offered": {
      "url": "https://www.mcgill.ca/study/2020-2021/courses/bmde-502",
      "semesters": [
        "Winter 2021",
        "Summer 2021"
      ]
    }
  },
  {
    "code": "BMDE 509",
    "title": "Quantitative Analysis and Modelling of Cellular Processes",
    "offered_by": "Biomedical Engineering",
    "offered_recently": false,
    "target_audience": "Graduates students in biomedical engineering",
    "target_audience_coded": "graduate",
    "background": "Expert",
    "format": "not currently offered",
    "credits": "3",
    "format_type": "credit",
    "length": "13 weeks",
    "general_description": "Quantitative mathematical models for biology: Quantitative models for key intra- and inter-cellular processes. Key mathematical concepts: stochastic differential equations, Markov models, Gibbs free energy, and Fick's Law. Biological systems: neurons, networks of bacteria, and genetic regulatory systems. Emphasis on the design of quantitative experiments and data analysis.",
    "topics": "quantitative biology",
    "subtopics": "physical cellular biology",
    "software": "",
    "prerequisites": "MATH 222, MATH 223, BMDE 519",
    "instructors": [
      {
        "name": "No professor associated",
        "email": null,
        "site": null
      }
    ],
    "open_to": "Not open to students who have taken PHGY 209 or PHGY 311",
    "feedback": "",
    "contact_instructors": "",
    "notes": "",
    "contacted_professor": false,
    "institution": "mcgill",
    "offered": null
  },
  {
    "code": "BMDE 512",
    "title": "Finite-element modelling in biomedical engineering",
    "offered_by": "Biomedical Engineering",
    "offered_recently": true,
    "target_audience": "Masters students in engineering?",
    "target_audience_coded": "graduate",
    "background": "Moderate - high",
    "format": "Fall semester",
    "credits": "3",
    "format_type": "credit",
    "length": "13 weeks",
    "general_description": "Biomedical Engineering : General principles of quantitative modelling; types of models; principles of the finite-element method, primarily as applied to mechanical systems; introduction to the use of finite-element software; model generation from imaging data; modelling various material types, mainly biological; model validation.",
    "topics": "numerical solutions",
    "subtopics": "biomechanics",
    "software": "",
    "prerequisites": "differential equations",
    "instructors": [
      {
        "name": "Robert Funnell",
        "email": "robert.funnell@mcgill.ca",
        "site": "https://www.mcgill.ca/bbme/w-robert-j-funnell"
      }
    ],
    "open_to": "Engineering students",
    "feedback": "",
    "contact_instructors": "",
    "notes": "",
    "contacted_professor": null,
    "institution": "mcgill",
    "offered": {
      "url": "https://www.mcgill.ca/study/2020-2021/courses/bmde-512",
      "semesters": [
        "Fall 2020",
        "Summer 2021"
      ]
    }
  },
  {
    "code": "BMDE 650",
    "title": "Advanced Medical Imaging",
    "offered_by": "Biomedical Engineering",
    "offered_recently": true,
    "target_audience": "Graduate students in biomedical and biological engineering",
    "target_audience_coded": "graduate",
    "background": "Expert",
    "format": "not currently offered",
    "credits": "3",
    "format_type": "credit",
    "length": "13 weeks",
    "general_description": "Biomedical Engineering (imaging) : Review of advanced techniques in medical imaging including: fast magnetic resonance imaging (MRI), functional MRI, MR angiography and quantitative flow measurement, spiral and dynamic x-ray computed tomography, 2D/3D positron emission tomography (PET), basic PET physiology, tracer kinetics, surgical planning and guidance, functional and anatomical brain mapping, 2D and 3D ultrasound imaging, and medical image processing.",
    "topics": "biomedical imaging",
    "subtopics": "imaging technologies",
    "software": "",
    "prerequisites": "?",
    "instructors": [
      {
        "name": "No professor associated",
        "email": null,
        "site": null
      }
    ],
    "open_to": "?",
    "feedback": "",
    "contact_instructors": "",
    "notes": "",
    "contacted_professor": false,
    "institution": "mcgill",
    "offered": {
      "url": "https://www.mcgill.ca/study/2020-2021/courses/bmde-650",
      "semesters": [
        "Winter 2021",
        "Summer 2021"
      ]
    }
  },
  {
    "code": "BMDE 652",
    "title": "Bioinformatics: Proteomics",
    "offered_by": "Biomedical Engineering",
    "offered_recently": false,
    "target_audience": "Graudate students in bioinformatics, biomedical and biological engineering",
    "target_audience_coded": "graduate",
    "background": "Expert",
    "format": "not currently offered",
    "credits": "3",
    "format_type": "credit",
    "length": "",
    "general_description": "Biomedical Engineering (bioinformatics) : Overview of high-throughput proteomic technologies commonly employed to study the localization and function of all proteins in an organism, and the bioinformatic approaches to analyze raw data and deposit them in proteome databases.",
    "topics": "proteomics",
    "subtopics": "bioinformatics for proteomics",
    "software": "",
    "prerequisites": "",
    "instructors": [
      {
        "name": "No professor associated",
        "email": null,
        "site": null
      }
    ],
    "open_to": "Bioinformatics option program",
    "feedback": "",
    "contact_instructors": "",
    "notes": "",
    "contacted_professor": false,
    "institution": "mcgill",
    "offered": null
  },
  {
    "code": "BREE 501",
    "title": "Simulation and Modelling",
    "offered_by": "Bioresource engineering",
    "offered_recently": true,
    "target_audience": "Undergraduate students in bioresource engineering",
    "target_audience_coded": "undergraduate",
    "background": "Expert",
    "format": "Winter semester 3 credits",
    "credits": "3",
    "format_type": "credit",
    "length": "13 weeks",
    "general_description": "Bioresource Engineering : Mathematical and computational modelling and simulation: linear, nonlinear, and chaotic; deterministic and stochastic; static and dynamic; steady and unsteady state. Verification, validation, sensitivity analysis. Examples emphasize bioengineering applications, e.g. machine design, population dynamics, food processing, biological control, farm management, ecological system design.",
    "topics": "dynamic modeling",
    "subtopics": "simulations",
    "software": "",
    "prerequisites": "Basic stats, physics, Calculus II, partial differential equations; BREE 252; AEMA 305",
    "instructors": [
      {
        "name": "Grant Clark",
        "email": "grant.clark@mcgill.ca",
        "site": "https://www.mcgill.ca/bioeng/faculty-and-staff/grant-clark"
      }
    ],
    "open_to": "Open to U3 students. Not open to students who have taken ABEN 612 or ABEN 501. Almost exclusively students in Bioresource Engineering, with some graduates that audit parts of the course",
    "feedback": "",
    "contact_instructors": "",
    "notes": "Have syllabus",
    "contacted_professor": true,
    "institution": "mcgill",
    "offered": {
      "url": "https://www.mcgill.ca/study/2020-2021/courses/bree-501",
      "semesters": [
        "Winter 2021",
        "Summer 2021"
      ]
    }
  },
  {
    "code": "BIOS 602",
    "title": "Epidemiology: Regression Models.",
    "offered_by": "Biostatistics",
    "offered_recently": true,
    "target_audience": "Graduate students in biostatistics",
    "target_audience_coded": "graduate",
    "background": "Moderate",
    "format": "Winter term",
    "credits": "4",
    "format_type": "credit",
    "length": "13 weeks",
    "general_description": "Biostatistics (regression) : Multivariable regression models for proportions, rates and their differences/ratios; Conditional logic regression; Proportional hazards and other parametric/semi-parametric models; unmatched, nested, and self-matched case-control studies; links to Cox's method; Rate ratio estimation when \"time-dependent\" membership in contrasted categories.",
    "topics": "statistics",
    "subtopics": "regression",
    "software": "r",
    "prerequisites": "Basic stats; MATH 556 and BIOS 601",
    "instructors": [
      {
        "name": "Erica Moodie",
        "email": "erica.moodie@mcgill.ca",
        "site": "https://www.mcgill.ca/epi-biostat-occh/erica-moodie"
      }
    ],
    "open_to": "Biostatistics students. Other students may register with permission of the instructor, however prerequisites are strict -- e.g. delta method, Taylor's expansions assumed known and used from the first week of class.",
    "feedback": "",
    "contact_instructors": "",
    "notes": "",
    "contacted_professor": true,
    "institution": "mcgill",
    "offered": {
      "url": "https://www.mcgill.ca/study/2020-2021/courses/bios-602",
      "semesters": [
        "Winter 2021",
        "Summer 2021"
      ]
    }
  },
  {
    "code": "BIOS 612",
    "title": "Advanced Generalized Linear Models.",
    "offered_by": "Biostatistics",
    "offered_recently": true,
    "target_audience": "Graduate students in epi",
    "target_audience_coded": "graduate",
    "background": "Expert",
    "format": "Fall semester",
    "credits": "4",
    "format_type": "credit",
    "length": "13 weeks",
    "general_description": "Biostatistics : Statistical methods for multinomial outcomes, overdispersion, and continuous and categorical correlated data; approaches to inference (estimating equations, likelihood-based methods, semi-parametric methods); analysis of longitudinal data; theoretical content and applications.",
    "topics": "statistics",
    "subtopics": "glm",
    "software": "r, others (stan or inla?)",
    "prerequisites": "More advanced; BIOS 611 or MATH 533; and MATH 523",
    "instructors": [
      {
        "name": "Alexandra Schmidt",
        "email": "alexandra.schmidt@mcgill.ca",
        "site": "http://alex-schmidt.research.mcgill.ca"
      }
    ],
    "open_to": "Open to students in Biostatistics and Math/Stat programs. Students in other disciplines require permission of the instructor. Note that this is not a first year course, but rather is more advanced and relies on topics from MATH 556/7",
    "feedback": "",
    "contact_instructors": "",
    "notes": "",
    "contacted_professor": false,
    "institution": "mcgill",
    "offered": {
      "url": "https://www.mcgill.ca/study/2020-2021/courses/bios-612",
      "semesters": [
        "Fall 2020",
        "Summer 2021"
      ]
    }
  },
  {
    "code": "BIOS 613",
    "title": "Statistical genetics",
    "offered_by": "Biostatistics",
    "offered_recently": false,
    "target_audience": "Graduate students in epi",
    "target_audience_coded": "graduate",
    "background": "Moderate",
    "format": "not currently offered",
    "credits": "4",
    "format_type": "credit",
    "length": "13 weeks",
    "general_description": "Biostatistics : Introduction to genetic epidemiology. Linkage analysis (parametric and non-parametric). Quantitative trait analysis. Linkage disequilibrium. Association analysis (candidate gene and genomewide). eQTL studies.",
    "topics": "statistics",
    "subtopics": "statistical genetics",
    "software": "",
    "prerequisites": "Moderate Stats; MATH 324",
    "instructors": [
      {
        "name": "No professor associated",
        "email": null,
        "site": null
      }
    ],
    "open_to": "?",
    "feedback": "",
    "contact_instructors": "",
    "notes": "",
    "contacted_professor": false,
    "institution": "mcgill",
    "offered": null
  },
  {
    "code": "BIOS 702",
    "title": "new version",
    "offered_by": "Biostatistics",
    "offered_recently": true,
    "target_audience": "PhD in Biostatistics",
    "target_audience_coded": "graduate",
    "background": "Moderate",
    "format": "To be offered as a series of 4-5 workshops per year, ~2-3 hours/workshop",
    "credits": null,
    "format_type": null,
    "length": "4-5 sessions each 2-3 hours",
    "general_description": "Reproducible research, high-powered computing with Compute Canada, the use and design of simulation studies, etc. To start Fall 2018/Winter 2019",
    "topics": "reproducible research",
    "subtopics": "high-performance computing",
    "software": "",
    "prerequisites": "?",
    "instructors": [
      {
        "name": "Erica Moodie",
        "email": "erica.moodie@mcgill.ca",
        "site": "https://www.mcgill.ca/epi-biostat-occh/erica-moodie"
      }
    ],
    "open_to": "Currently, only to BIOS PhD students, though workshops are open to other students (and will be advertized) as space permits",
    "feedback": "",
    "contact_instructors": "",
    "notes": "",
    "contacted_professor": true,
    "institution": "mcgill",
    "offered": {
      "url": "https://www.mcgill.ca/study/2020-2021/courses/bios-702",
      "semesters": [
        "Fall 2020",
        "Winter 2021",
        "Summer 2021"
      ]
    }
  },
  {
    "code": "EPIB 682",
    "title": "Introduction to Bayesian Analysis in Health Sciences",
    "offered_by": "Biostatistics",
    "offered_recently": false,
    "target_audience": "Graduate students in epi",
    "target_audience_coded": "graduate",
    "background": "Moderate",
    "format": "not currently offered, but likely to be offered every second year as a 3 credit course combining intro/intermediate for epi-level audience with the option of a 4th credit for students with a more technical background where the 4th credit will cover theoretical/statistical issues",
    "credits": "2",
    "format_type": "credit",
    "length": "13 weeks",
    "general_description": "Statistics (Bayesian methods): Introduction to practical Bayesian methods. Topics will include Bayesian philosophy, simple Bayesian models including linear and logistic regression, hierarchical models, and numerical techniques, including an introduction to the Gibbs sampler. Programming in R and WinBUGS.",
    "topics": "statistics",
    "subtopics": "bayesian",
    "software": "",
    "prerequisites": "Moderate stats; EPIB 607 and EPIB 621",
    "instructors": [
      {
        "name": "No professor associated",
        "email": null,
        "site": null
      }
    ],
    "open_to": "Open",
    "feedback": "",
    "contact_instructors": "",
    "notes": "",
    "contacted_professor": false,
    "institution": "mcgill",
    "offered": null
  },
  {
    "code": null,
    "title": "Summer school in statistics",
    "offered_by": "Biostats and Stats",
    "offered_recently": true,
    "target_audience": "Undergrads & MSc students, priority given to math/stat backgrounds",
    "target_audience_coded": "undergraduate and graduate",
    "background": "Moderate",
    "format": "1 week of full day courses, fairly introductory level to give a taste of courses offered at the graduate level at McGill",
    "credits": null,
    "format_type": null,
    "length": "1 week",
    "general_description": "Electronic health records, survival analysis, computational methods, spatial statistics, causal inference",
    "topics": "statistics",
    "subtopics": "biostatistics",
    "software": "",
    "prerequisites": "?",
    "instructors": [
      {
        "name": "Alexandra Schmidt",
        "email": "alexandra.schmidt@mcgill.ca",
        "site": "http://alex-schmidt.research.mcgill.ca"
      }
    ],
    "open_to": "Priority given first to undergraduates in quantatitive programs (math, stat, etc.), then to MSc students.",
    "feedback": "",
    "contact_instructors": "",
    "notes": "",
    "contacted_professor": true,
    "institution": "mcgill",
    "offered": null
  },
  {
    "code": null,
    "title": "Summer school: Nonlinear dynamics in brain and behavior",
    "offered_by": "CAMBAM Centre for Applied Mathematics in Bioscience and Medicine",
    "offered_recently": true,
    "target_audience": "Undergraduate students from anywhere",
    "target_audience_coded": "undergraduate",
    "background": "Moderate",
    "format": "Summer school - 16 weeks - 2018 (NSERC CREATE)",
    "credits": null,
    "format_type": null,
    "length": "16 weeks",
    "general_description": "(cd-create.org/admissions). The Complex Dynamics NSERC-Create network recruits postdoctoral, graduate and undergraduate trainees from within and outside Canada to participate in research focused on nonlinear dynamics of brain and behavior. Dynamic systems; neuroscience; psychology; computational neuroscience; systems neuroscience",
    "topics": "dynamic modeling",
    "subtopics": "",
    "software": "",
    "prerequisites": "Calculus; differential equations; nonlinear dynamics; basic background in neuroscience",
    "instructors": [
      {
        "name": "Anmar Khadra",
        "email": "anmar.khadra@mcgill.ca",
        "site": "http://www.medicine.mcgill.ca/physio/khadralab/"
      }
    ],
    "open_to": "To all students with interests in nonlinear dynamics and its applications to neuroscience and psychology.",
    "feedback": "NA",
    "contact_instructors": "",
    "notes": "",
    "contacted_professor": null,
    "institution": "mcgill",
    "offered": null
  },
  {
    "code": "COMP 204",
    "title": "Computer Programming for Life",
    "offered_by": "Computer Science",
    "offered_recently": true,
    "target_audience": "Life Science ugrad with no prior CS experience",
    "target_audience_coded": "undergraduate",
    "background": "Limited",
    "format": "Offered every Fall, 3 credits",
    "credits": "3",
    "format_type": "credit",
    "length": "13 weeks",
    "general_description": "Computer Science: Computer programming in a high level language: variables, expressions, types, functions, conditionals, loops, objects and classes. Introduction to algorithms, modular software design, libraries, file input/output, debugging. Emphasis on applications in the life sciences.",
    "topics": "basic cs",
    "subtopics": "introductory programming",
    "software": "python",
    "prerequisites": "BIOL 112. CEGEP level mathematics course.",
    "instructors": [
      {
        "name": "Mathieu Blanchette",
        "email": "blanchem@mcb.mcgill.ca",
        "site": "https://www.cs.mcgill.ca/~blanchem/"
      }
    ],
    "open_to": "",
    "feedback": "",
    "contact_instructors": "",
    "notes": "",
    "contacted_professor": false,
    "institution": "mcgill",
    "offered": {
      "url": "https://www.mcgill.ca/study/2020-2021/courses/comp-204",
      "semesters": [
        "Fall 2020",
        "Winter 2021",
        "Summer 2021"
      ]
    }
  },
  {
    "code": "COMP 462/561",
    "title": "Computational Biology Methods and Research",
    "offered_by": "Computer Science",
    "offered_recently": true,
    "target_audience": "Senior ugrad/grad with solid CS background",
    "target_audience_coded": "undergraduate and graduate",
    "background": "Expert",
    "format": "Offered every Fall, 4 credits",
    "credits": "4",
    "format_type": "credit",
    "length": "13 weeks",
    "general_description": "Computer Science: Application of computer science techniques to problems arising in biology and medicine, techniques for modeling evolution, aligning molecular sequences, predicting structure of a molecule and other problems from computational biology. An in-depth exploration of key research areas.",
    "topics": "comp bio",
    "subtopics": "algorithms in computational biology",
    "software": "any",
    "prerequisites": "Moderate CS; COMP 251, and MATH 323 or MATH 203 or BIOL 309",
    "instructors": [
      {
        "name": "Mathieu Blanchette",
        "email": "blanchem@mcb.mcgill.ca",
        "site": "https://www.cs.mcgill.ca/~blanchem/"
      }
    ],
    "open_to": "Not open to students who have taken COMP 562. Not open to students who are taking or have taken COMP 561.",
    "feedback": "",
    "contact_instructors": "",
    "notes": "Have Syllabus",
    "contacted_professor": false,
    "institution": "mcgill",
    "offered": {
      "url": "https://www.mcgill.ca/study/2020-2021/courses/comp-462",
      "semesters": [
        "Fall 2020",
        "Summer 2021"
      ]
    }
  },
  {
    "code": "COMP 551",
    "title": "Applied Machine Learning",
    "offered_by": "Computer Science",
    "offered_recently": true,
    "target_audience": "Senior ugrad/grad with moderate CS background",
    "target_audience_coded": "undergraduate and graduate",
    "background": "Moderate",
    "format": "Offered every Fall and Winter, 4 credits",
    "credits": "4",
    "format_type": "credit",
    "length": "13 weeks",
    "general_description": "Computer Science: Selected topics in machine learning and data mining, including clustering, neural networks, support vector machines, decision trees. Methods include feature selection and dimensionality reduction, error estimation and empirical validation, algorithm design and parallelization, and handling of large data sets. Emphasis on good methods and practices for deployment of real systems.",
    "topics": "machine learning",
    "subtopics": "machine learning and applications",
    "software": "python",
    "prerequisites": "Moderate CS; MATH 323 or ECSE 205 or ECSE 305",
    "instructors": [
      {
        "name": "Mathieu Blanchette",
        "email": "blanchem@mcb.mcgill.ca",
        "site": "https://www.cs.mcgill.ca/~blanchem/"
      }
    ],
    "open_to": "Not open to students who have taken COMP 598 when topic was \"Applied Machine Learning\"",
    "feedback": "",
    "contact_instructors": "",
    "notes": "",
    "contacted_professor": false,
    "institution": "mcgill",
    "offered": {
      "url": "https://www.mcgill.ca/study/2020-2021/courses/comp-551",
      "semesters": [
        "Fall 2020",
        "Winter 2021",
        "Summer 2021"
      ]
    }
  },
  {
    "code": "COMP 598",
    "title": "Topics in Computer Science",
    "offered_by": "Computer Science",
    "offered_recently": true,
    "target_audience": "Senior ugrad/grad with solid CS background",
    "target_audience_coded": "undergraduate and graduate",
    "background": "Expert",
    "format": "Offered every Fall and Winter, 3 credits",
    "credits": "3",
    "format_type": "credit",
    "length": "13 weeks",
    "general_description": "Computer Science : Topics in computer science.",
    "topics": "comp bio",
    "subtopics": "computational structural biology",
    "software": "any",
    "prerequisites": "Advanced CS; advanced calculus, linear algebra, advanced probability",
    "instructors": [
      {
        "name": "Prakash Panangaden (Fall)",
        "email": "prakash@cs.mcgill.ca",
        "site": "https://www.cs.mcgill.ca/~prakash/"
      },
      {
        "name": "J\u00e9r\u00f4me Waldispuhl (Winter)",
        "email": "jerome@cs.mcgill.ca",
        "site": "https://www.cs.mcgill.ca/~jeromew/            "
      }
    ],
    "open_to": "Open. Advanced undergraduate level or Master's level",
    "feedback": "",
    "contact_instructors": "",
    "notes": "No syllabus ready",
    "contacted_professor": true,
    "institution": "mcgill",
    "offered": {
      "url": "https://www.mcgill.ca/study/2020-2021/courses/comp-598",
      "semesters": [
        "Fall 2020",
        "Winter 2021",
        "Summer 2021"
      ]
    }
  },
  {
    "code": "COMP 616D1/D2",
    "title": "Bioinformatics Seminar",
    "offered_by": "Computer Science",
    "offered_recently": false,
    "target_audience": "Graduate students in bioinformatics. Limited to 30 students.",
    "target_audience_coded": "?",
    "background": "Expert",
    "format": "Not currently offered",
    "credits": "1",
    "format_type": ".5credit each",
    "length": "13 weeks",
    "general_description": "Computer Science (bioinformatics) : Introduction to current trends in Bioinformatics and closely related fields such as genomics and proteomics.",
    "topics": "bioinformatics",
    "subtopics": "seminar",
    "software": "",
    "prerequisites": "?",
    "instructors": [
      {
        "name": "No professor associated",
        "email": null,
        "site": null
      }
    ],
    "open_to": "Bioinformatics Option Program",
    "feedback": "",
    "contact_instructors": "",
    "notes": "",
    "contacted_professor": false,
    "institution": "mcgill",
    "offered": null
  },
  {
    "code": "COMP 618",
    "title": "Bioinformatics: Functional Genomics",
    "offered_by": "Computer Science",
    "offered_recently": false,
    "target_audience": "Graduate students in bioinformatics, computer science, mathematics,",
    "target_audience_coded": "?",
    "background": "Moderate",
    "format": "Not currently offered",
    "credits": "3",
    "format_type": "credit",
    "length": "13 weeks",
    "general_description": "Computer Science : Techniques related to microarrays (normalization, differential expression, class prediction, class discovery), the analysis of non-coding sequence data (identification of transcription factor binding sites), single nucleotide polymorphisms, the inference of biological networks, and integrative Bioinformatics approaches.",
    "topics": "bioinformatics",
    "subtopics": "functional genomics",
    "software": "",
    "prerequisites": "?",
    "instructors": [
      {
        "name": "No professor associated",
        "email": null,
        "site": null
      }
    ],
    "open_to": "Bioinformatics Option Program. Computer Science graduate students not in the Bioinformatics Option Program need additional permission of the M.Sc. or Ph.D. Committee respectively.",
    "feedback": "",
    "contact_instructors": "",
    "notes": "",
    "contacted_professor": false,
    "institution": "mcgill",
    "offered": null
  },
  {
    "code": "COMP 680",
    "title": "Mining Biological Sequences",
    "offered_by": "Computer Science",
    "offered_recently": false,
    "target_audience": "Senior ugrad/grad with prior bioinformatics experience",
    "target_audience_coded": "undergraduate and graduate",
    "background": "Expert",
    "format": "Only offered alternate years (not offered 2018-2019), 4 credits",
    "credits": "4",
    "format_type": "credit",
    "length": "13 weeks",
    "general_description": "Computer Science: Advanced algorithms for the annotation of biological sequences. Algorithms and heuristics for pair-wise and multiple sequence alignment. Gene-finding with hidden Markov models and variants. Motifs discovery techniques: over representation and phylogenetic footprinting approaches. RNA secondary structure prediction. Detection of repetitive elements. Representation and annotation of protein domains.",
    "topics": "comp bio",
    "subtopics": "machine learning in bioinformatics",
    "software": "python",
    "prerequisites": "Moderate CS; COMP 462",
    "instructors": [
      {
        "name": "Mathieu Blanchette",
        "email": "blanchem@mcb.mcgill.ca",
        "site": "https://www.cs.mcgill.ca/~blanchem/"
      }
    ],
    "open_to": "",
    "feedback": "",
    "contact_instructors": "",
    "notes": "",
    "contacted_professor": false,
    "institution": "mcgill",
    "offered": null
  },
  {
    "code": "ECSE 552",
    "title": "Deep Learning",
    "offered_by": "Electrical and Computer Engineering",
    "offered_recently": true,
    "target_audience": "Open to all",
    "target_audience_coded": "undergraduate and graduate",
    "background": "Moderate - high/low",
    "format": "Winter 2021",
    "credits": "4",
    "format_type": "credit",
    "length": "13 weeks",
    "general_description": "In the past few years, deep learning has revolutionized the field of machine learning and has madea significant impact in various domains such as self-driving cars, tra!c control, natural languageprocessing, face recognition, drug discovery, and personalized medicine. Given the importance ofthis category of machine learning techniques, it is essential for graduate and undergraduatestudents to learn the principles of deep learning and become familiar with state-of-the-artarchitectures and their applications in data science. The aim of this course is to provide a rigorousunderstanding of deep learning techniques, to describe practical considerations for the design,implementation and application of these methods, and to familiarize students with recentadvances in this field",
    "topics": "machine learning",
    "subtopics": "machine learning and applications",
    "software": "python",
    "prerequisites": "(ECSE 551 or COMP551) and ECSE 443",
    "instructors": [
      {
        "name": "Amin Emad",
        "email": "amin.emad@mcgill.ca",
        "site": null
      }
    ],
    "open_to": "Open to all",
    "feedback": "",
    "contact_instructors": "",
    "notes": "",
    "contacted_professor": null,
    "institution": "mcgill",
    "offered": {
      "url": "https://www.mcgill.ca/study/2020-2021/courses/ecse-552",
      "semesters": [
        "Winter 2021",
        "Summer 2021"
      ]
    }
  },
  {
    "code": "ECSE 556",
    "title": "Machine learning in network biology",
    "offered_by": "Electrical and Computer Engineering",
    "offered_recently": false,
    "target_audience": "Open to all",
    "target_audience_coded": "undergraduate and graduate",
    "background": "Moderate - low",
    "format": "",
    "credits": "4",
    "format_type": "credit",
    "length": "13 weeks",
    "general_description": "Networks are useful structures to represent the relationships among di!erent objects. In the fieldof computational molecular biology, networks representing the relationship among genes,proteins and other molecules are particularly important for understanding and modeling di!erentbiological mechanisms. The goal of this course is to provide an overview of the most recentbioinformatics algorithms and methods focused on construction of these networks, their analysis,and their utilization in guiding di!erent machine learning tasks.",
    "topics": "machine learning",
    "subtopics": "algorithms in computational biology",
    "software": "python, r",
    "prerequisites": "Approval of the instructor",
    "instructors": [
      {
        "name": "Amin Emad",
        "email": "amin.emad@mcgill.ca",
        "site": null
      }
    ],
    "open_to": "Open to all",
    "feedback": "",
    "contact_instructors": "",
    "notes": "",
    "contacted_professor": null,
    "institution": "mcgill",
    "offered": null
  },
  {
    "code": "ECSE 689",
    "title": "Machine Learning and Graph Mining in Bioinformatics",
    "offered_by": "Electrical and Computer Engineering",
    "offered_recently": true,
    "target_audience": "Graduate students with a computational background or a biological background with strong computational knowledge.",
    "target_audience_coded": "graduate",
    "background": "Expert",
    "format": "",
    "credits": "4",
    "format_type": "credit",
    "length": "13 weeks",
    "general_description": "Basics concepts in molecular biology; biological networks; topological characteristics of biological networks; graph mining, community detection, and module identification in biological networks; gene function prediction; machine learning in systems biology; biological network-guided clustering, dimensionality reduction, classification, regression, and feature selection; network-guided machine learning; construction of co-expression networks; construction of gene regulatory networks; construction of protein-protein interaction networks.",
    "topics": "machine learning",
    "subtopics": "bioinformatics programming",
    "software": "",
    "prerequisites": "Computer programming (for the project). Some familiarity with graph theory, graph mining, and machine learning is useful. Some familiarity with molecular biology concepts is useful but not necessary.",
    "instructors": [
      {
        "name": "Amin Emad",
        "email": "amin.emad@mcgill.ca",
        "site": "http://www.ece.mcgill.ca/~aemad2/"
      }
    ],
    "open_to": "Open to all, with permission of the Department.",
    "feedback": "",
    "contact_instructors": "",
    "notes": "",
    "contacted_professor": null,
    "institution": "mcgill",
    "offered": {
      "url": "https://www.mcgill.ca/study/2020-2021/courses/ecse-689",
      "semesters": [
        "Fall 2020",
        "Summer 2021"
      ]
    }
  },
  {
    "code": "BIOS 601",
    "title": "Epidemiology: Introduction and statistical models.",
    "offered_by": "Epidemiology",
    "offered_recently": true,
    "target_audience": "Graduate students in epi, biostats (required course for PhD/MSc biostats)",
    "target_audience_coded": "graduate",
    "background": "Moderate",
    "format": "Fall semester",
    "credits": "4",
    "format_type": "credit",
    "length": "13 weeks",
    "general_description": "Biostatistics (intro) : Examples of applications of statistics and probability in epidemiologic research. Source of epidemiologic data (surveys, experimental and non-experimental studies). Elementary data analysis for single and comparative epidemiologic parameters.",
    "topics": "statistics",
    "subtopics": "biostatistics",
    "software": "r",
    "prerequisites": "Basic stats; MATH 324",
    "instructors": [
      {
        "name": "James Anthony Hanley",
        "email": "james.hanley@mcgill.ca",
        "site": "http://www.medicine.mcgill.ca/epidemiology/hanley/"
      }
    ],
    "open_to": "Biostatistics students. Other students may register with permission of the instructor.",
    "feedback": "",
    "contact_instructors": "",
    "notes": "Have syllabus",
    "contacted_professor": false,
    "institution": "mcgill",
    "offered": {
      "url": "https://www.mcgill.ca/study/2020-2021/courses/bios-601",
      "semesters": [
        "Fall 2020",
        "Summer 2021"
      ]
    }
  },
  {
    "code": "EPIB 601",
    "title": "Fundamentals of Epidemiology",
    "offered_by": "Epidemiology",
    "offered_recently": true,
    "target_audience": "Graduate students in epi (and PH?)",
    "target_audience_coded": "graduate",
    "background": "Moderate",
    "format": "Fall semester",
    "credits": "4",
    "format_type": "credit",
    "length": "13 weeks",
    "general_description": "Epidemiology (introduction) : This course aims to provide a comprehensive introduction to epidemiologic concepts and corresponding terms. After an introduction to the history, definition, and purposes of epidemiology, \"core\" concepts that are relevant in several areas of investigation (e.g., etiologic research, health care research, and community medicine practice) will be presented.",
    "topics": "epidemiology",
    "subtopics": "basic",
    "software": "",
    "prerequisites": "Concurrent enrollment in PPHS 602 for students in Epidemiology and Public Health programs",
    "instructors": [
      {
        "name": "Alissa Koski",
        "email": "alissa.koski@mcgill.ca",
        "site": "https://mcgill.ca/epi-biostat-occh/alissa-koski"
      }
    ],
    "open_to": "Epidemiology students. Not open to students who have taken EPIB 606.",
    "feedback": "",
    "contact_instructors": "",
    "notes": "",
    "contacted_professor": false,
    "institution": "mcgill",
    "offered": {
      "url": "https://www.mcgill.ca/study/2020-2021/courses/epib-601",
      "semesters": [
        "Fall 2020",
        "Summer 2021"
      ]
    }
  },
  {
    "code": "EPIB 603",
    "title": "Intermediate Epidemiology",
    "offered_by": "Epidemiology",
    "offered_recently": true,
    "target_audience": "Epidemiology MSc students",
    "target_audience_coded": "graduate",
    "background": "Moderate",
    "format": "Winter 2018",
    "credits": "4",
    "format_type": "credit",
    "length": "13 weeks",
    "general_description": "Quantification of epidemiological methods using R and Rmarkdown to encourage reproducible research. Labs involve data munging, data visualizations with ggplot2, epidemiological concepts including survival analysis and use of propensity score models among other topics.",
    "topics": "reproducible research",
    "subtopics": "statistics",
    "software": "r",
    "prerequisites": "EPIB 601, EPIB 607, and PPHS 602",
    "instructors": [
      {
        "name": "James Brophy",
        "email": "james.brophy@mcgill.ca",
        "site": "https://www.mcgill.ca/epi-biostat-occh/james-brophy"
      }
    ],
    "open_to": "The course is principally for Epi MSc students.",
    "feedback": "",
    "contact_instructors": "",
    "notes": "",
    "contacted_professor": null,
    "institution": "mcgill",
    "offered": {
      "url": "https://www.mcgill.ca/study/2020-2021/courses/epib-603",
      "semesters": [
        "Winter 2021",
        "Summer 2021"
      ]
    }
  },
  {
    "code": "EXMD 634",
    "title": "Quantitative Research Methods",
    "offered_by": "Experimental Medicine",
    "offered_recently": true,
    "target_audience": "Exp Med graduate students",
    "target_audience_coded": "graduate",
    "background": "Limited",
    "format": "3 credit course; annually (fall)",
    "credits": "3",
    "format_type": "credit",
    "length": "13 weeks",
    "general_description": "Topics covered include: 1) An overview of common research designs based on examples from research currently undertaken in the Division of Experimental Medicine; 2) Types of data arising from these designs; 3) Basic methods for data analysis; and 4) Application of these methods to student research projects.",
    "topics": "statistics",
    "subtopics": "basic",
    "software": "r",
    "prerequisites": "Basic Calculus, Algebra",
    "instructors": [
      {
        "name": "Nandini Dendukuri",
        "email": "nandini.dendukuri@mcgill.ca",
        "site": "https://www.mcgill.ca/epi-biostat-occh/nandini-dendukuri"
      }
    ],
    "open_to": "Graduate or postdoctoral studies in the Faculty of Medicine or the Faculty of Science",
    "feedback": "",
    "contact_instructors": "",
    "notes": "Course website in progress (~2 months, Aug/Sep 2018 )",
    "contacted_professor": true,
    "institution": "mcgill",
    "offered": {
      "url": "https://www.mcgill.ca/study/2020-2021/courses/exmd-634",
      "semesters": [
        "Fall 2020",
        "Summer 2021"
      ]
    }
  },
  {
    "code": "HGEN 677",
    "title": "Statistical concepts in Genetics and Genomic Analysis",
    "offered_by": "Human Genetics",
    "offered_recently": true,
    "target_audience": "Human Genetics graduate students and a few more. A previous basic statistics course is prerequisite",
    "target_audience_coded": "graduate",
    "background": "Limited",
    "format": "3 credit, one fall term course offered every 2 years (offered 2018-2019 year)",
    "credits": "3",
    "format_type": "credit",
    "length": "13 weeks",
    "general_description": "Introduces some statistical concepts often seen in human genetics: multiple testing, clustering due to batch effects, concepts behind experimental design",
    "topics": "statistics",
    "subtopics": "second level",
    "software": "",
    "prerequisites": "Basic Stats",
    "instructors": [
      {
        "name": "Celia Greenwood",
        "email": "celia.greenwood@mcgill.ca",
        "site": "https://www.mcgill.ca/epi-biostat-occh/celia-greenwood-1"
      }
    ],
    "open_to": "Open to all, with permission of the Department.",
    "feedback": "",
    "contact_instructors": "",
    "notes": "Have syllabus",
    "contacted_professor": false,
    "institution": "mcgill",
    "offered": {
      "url": "https://www.mcgill.ca/study/2020-2021/courses/hgen-677",
      "semesters": [
        "Fall 2020",
        "Summer 2021"
      ]
    }
  },
  {
    "code": "HGEN 693",
    "title": "Using Bioinformatics Resources",
    "offered_by": "Human Genetics",
    "offered_recently": true,
    "target_audience": "Graduate students in Human Genetics",
    "target_audience_coded": "graduate",
    "background": "Limited",
    "format": "3 credits Winter semester",
    "credits": "3",
    "format_type": "credit",
    "length": "13 weeks",
    "general_description": "Bioinformatics resources: Study of internet resources relevant to biomedical research.",
    "topics": "bioinformatics",
    "subtopics": "bioinformatics tools",
    "software": "",
    "prerequisites": "",
    "instructors": [
      {
        "name": "Ken Dewar",
        "email": "ken.dewar@mcgill.ca",
        "site": "http://www.mcgillgenomecentre.org/ken-dewar"
      }
    ],
    "open_to": "Open to all, with permission of the Department.",
    "feedback": "",
    "contact_instructors": "",
    "notes": "Have syllabus",
    "contacted_professor": false,
    "institution": "mcgill",
    "offered": {
      "url": "https://www.mcgill.ca/study/2020-2021/courses/hgen-693",
      "semesters": [
        "Winter 2021",
        "Summer 2021"
      ]
    }
  },
  {
    "code": null,
    "title": "Advanced R workshop",
    "offered_by": "Human Genetics Student Society",
    "offered_recently": true,
    "target_audience": "Graduate students in Human Genetics",
    "target_audience_coded": "graduate",
    "background": "Limited",
    "format": "1/2 day workshop offered occasionally",
    "credits": null,
    "format_type": null,
    "length": "1/2 day",
    "general_description": "Introduces some advanced features in R programming",
    "topics": "coding r",
    "subtopics": "genomics",
    "software": "r",
    "prerequisites": "Basic skills for R",
    "instructors": [
      {
        "name": "John Morris",
        "email": "john.morris4@mail.mcgill.ca",
        "site": null
      }
    ],
    "open_to": "Open; registration for the workshop is limited to students within the Human Genetics department, however, if in the days leading up there is space available then we open up those spots to people in other departments/faculties that may be interested.",
    "feedback": "No formal feedback but based on conversations I had with some of the students who attended and the instructor (Jean Monlong) it seemed to be successful and most of the students were able to take something valuable away from the workshop. As well, given that this was an Advanced R Workshop, we had asked all those that registered ahead of time to provide a list of topics they would like to be covered in the workshop, so the content was very much tailored to what the majority of those attending wanted to learn",
    "contact_instructors": "",
    "notes": "Have powerpoint presentation of workshop",
    "contacted_professor": true,
    "institution": "mcgill",
    "offered": null
  },
  {
    "code": "GLIS 673",
    "title": "Bioinformatics Resources",
    "offered_by": "Information studies",
    "offered_recently": true,
    "target_audience": "Graduate students in bioinformatics, information studies",
    "target_audience_coded": "graduate",
    "background": "Limited",
    "format": "not currently offered",
    "credits": "3",
    "format_type": "credit",
    "length": "13 weeks",
    "general_description": "Library & Information Studies (bioinformatics): Bioinformatics from a library and information science perspective: biological foundation for bioinformatics; bioinformatics information needs and behaviours; information retrieval using key bioinformatics resources; the role of biology, computer science and library and information science; ethics.",
    "topics": "bioinformatics",
    "subtopics": "bioinformatics tools",
    "software": "",
    "prerequisites": "GLIS 619",
    "instructors": [
      {
        "name": "No professor associated",
        "email": null,
        "site": null
      }
    ],
    "open_to": "?",
    "feedback": "",
    "contact_instructors": "",
    "notes": "",
    "contacted_professor": false,
    "institution": "mcgill",
    "offered": {
      "url": "https://www.mcgill.ca/study/2020-2021/courses/glis-673",
      "semesters": [
        "Winter 2021",
        "Summer 2021"
      ]
    }
  },
  {
    "code": "MATH 437",
    "title": "Mathematical Methods in Biology",
    "offered_by": "Mathematics and Statistics",
    "offered_recently": true,
    "target_audience": "Undergraduate students in biology, earth systems, neuroscience, physics, mathematics, biological physics, physiology & physics",
    "target_audience_coded": "undergraduate",
    "background": "Moderate",
    "format": "Winter semester 3 credits",
    "credits": "3",
    "format_type": "credit",
    "length": "13 weeks",
    "general_description": "Mathematics & Statistics : The formulation and treatment of realistic mathematical models describing biological phenomena through qualitative and quantitative mathematical techniques (e.g. local and global stability theory, bifurcation analysis and phase plane analysis) and numerical simulation. Concrete and detailed examples will be drawn from molecular and cellular biology and mammalian physiology.",
    "topics": "dynamic modeling",
    "subtopics": "basic",
    "software": "",
    "prerequisites": "Differential Equations (MATH 315 or 325), Nonlinear Dynamics and Chaos (MATH 326 or 376) and a CEGEP or higher level computer programming course.",
    "instructors": [
      {
        "name": "Anmar Khadra",
        "email": "anmar.khadra@mcgill.ca",
        "site": "http://www.medicine.mcgill.ca/physio/khadralab/"
      }
    ],
    "open_to": "Everyone interested.",
    "feedback": "Usually very good. Evaluations typically range bewtween 4.5-4.9.",
    "contact_instructors": "",
    "notes": "",
    "contacted_professor": null,
    "institution": "mcgill",
    "offered": {
      "url": "https://www.mcgill.ca/study/2020-2021/courses/math-437",
      "semesters": [
        "Winter 2021",
        "Summer 2021"
      ]
    }
  },
  {
    "code": "MATH 523",
    "title": "Generalized Linear Models",
    "offered_by": "Mathematics and Statistics",
    "offered_recently": true,
    "target_audience": "Undergraduate students in mathematics, statistics, management, computer science Graduate students in biostatistics",
    "target_audience_coded": "undergraduate and graduate",
    "background": "Moderate",
    "format": "Winter semester 4 credits",
    "credits": "4",
    "format_type": "credit",
    "length": "13 weeks",
    "general_description": "Mathematics & Statistics (data analysis): Modern discrete data analysis. Exponential families, orthogonality, link functions. Inference and model selection using analysis of deviance. Shrinkage (Bayesian, frequentist viewpoints). Smoothing. Residuals. Quasi-likelihood. Contingency tables: logistic regression, log-linear models. Censored data. Applications to current problems in medicine, biological and physical sciences. R software.",
    "topics": "statistics",
    "subtopics": "glm",
    "software": "",
    "prerequisites": "Moderate stats; MATH 423",
    "instructors": [
      {
        "name": "Johanna Neslehova",
        "email": "neslehova@math.mcgill.ca",
        "site": "http://www.math.mcgill.ca/neslehova/"
      }
    ],
    "open_to": "Open; Not open to students who have taken MATH 426",
    "feedback": "",
    "contact_instructors": "",
    "notes": "",
    "contacted_professor": false,
    "institution": "mcgill",
    "offered": {
      "url": "https://www.mcgill.ca/study/2020-2021/courses/math-523",
      "semesters": [
        "Winter 2021",
        "Summer 2021"
      ]
    }
  },
  {
    "code": "MATH 533",
    "title": "Honours Regression and Analysis of Variance",
    "offered_by": "Mathematics and Statistics",
    "offered_recently": true,
    "target_audience": "Undergraduate students in statistics, computer science Graduate students in biostatistics",
    "target_audience_coded": "undergraduate and graduate",
    "background": "Moderate",
    "format": "Fall semester 4 credits",
    "credits": "4",
    "format_type": "credit",
    "length": "13 weeks",
    "general_description": "Mathematics & Statistics : Least-squares estimators and their properties. Analysis of variance. Linear models with general covariance. Multivariate normal and chi-squared distributions; quadratic forms. General linear hypothesis: F-test and t-test. Prediction and confidence intervals. Transformations and residual plot. Balanced designs.",
    "topics": "statistics",
    "subtopics": "regression",
    "software": "",
    "prerequisites": "Moderate stats; MATH 357, MATH 247 or MATH 251",
    "instructors": [
      {
        "name": "Yi Yang",
        "email": "yi.yang6@mcgill.ca",
        "site": "http://www.math.mcgill.ca/yyang/"
      }
    ],
    "open_to": "Open; Not open to have taken or are taking MATH 423",
    "feedback": "",
    "contact_instructors": "",
    "notes": "",
    "contacted_professor": false,
    "institution": "mcgill",
    "offered": {
      "url": "https://www.mcgill.ca/study/2020-2021/courses/math-533",
      "semesters": [
        "Fall 2020",
        "Summer 2021"
      ]
    }
  },
  {
    "code": "MATH 537",
    "title": "Honours Mathematical Models in Biology",
    "offered_by": "Mathematics and Statistics",
    "offered_recently": true,
    "target_audience": "Undergraduate students in mathematics",
    "target_audience_coded": "undergraduate",
    "background": "Expert",
    "format": "Winter semester 4 credits",
    "credits": "4",
    "format_type": "credit",
    "length": "13 weeks",
    "general_description": "Mathematics & Statistics (Sci) : The formulation and treatment of realistic mathematical models describing biological phenomena through such qualitative and quantitative mathematical techniques as local and global stability theory, bifurcation analysis, phase plane analysis, and numerical simulation. Concrete and detailed examples will be drawn from molecular, cellular and population biology and mammalian physiology.",
    "topics": "dynamic modeling",
    "subtopics": "mathematical modeling",
    "software": "",
    "prerequisites": "Differential Equations (MATH 315 or 325), Nonlinear Dynamics and Chaos (MATH 326 or 376) and a CEGEP or higher level computer programming course.",
    "instructors": [
      {
        "name": "Anmar Khadra",
        "email": "anmar.khadra@mcgill.ca",
        "site": "http://www.medicine.mcgill.ca/physio/khadralab/"
      }
    ],
    "open_to": "Everyone, except those that have taken MATH 437",
    "feedback": "Usually very good. Evaluations typically range bewtween 4.5-4.9.",
    "contact_instructors": "",
    "notes": "",
    "contacted_professor": null,
    "institution": "mcgill",
    "offered": {
      "url": "https://www.mcgill.ca/study/2020-2021/courses/math-537",
      "semesters": [
        "Winter 2021",
        "Summer 2021"
      ]
    }
  },
  {
    "code": "MATH 547",
    "title": "Stochastic Processes",
    "offered_by": "Mathematics and Statistics",
    "offered_recently": false,
    "target_audience": "Undergraduate students in engineering, statistics",
    "target_audience_coded": "undergraduate",
    "background": "Expert",
    "format": "not currently offered",
    "credits": "4",
    "format_type": "credit",
    "length": "13 weeks",
    "general_description": "Statistics and Probability: Conditional probability and conditional expectation, generating functions. Branching processes and random walk. Markov chains:transition matrices, classification of states, ergodic theorem, examples. Birth and death processes, queueing theory.",
    "topics": "statistics",
    "subtopics": "stochastic processes",
    "software": "",
    "prerequisites": "Moderate stats; MATH 356 and either MATH 247 or MATH 251",
    "instructors": [
      {
        "name": "No professor associated",
        "email": null,
        "site": null
      }
    ],
    "open_to": "Not open to students who have taken or are taking MATH 447",
    "feedback": "",
    "contact_instructors": "",
    "notes": "",
    "contacted_professor": false,
    "institution": "mcgill",
    "offered": null
  },
  {
    "code": "MATH 556/557",
    "title": "Mathematical Statistics I and II",
    "offered_by": "Mathematics and Statistics",
    "offered_recently": true,
    "target_audience": "Undergraduate students in statistics, computer science Graduate students in biostatistics",
    "target_audience_coded": "undergraduate and graduate",
    "background": "Expert",
    "format": "Fall semester/Winter semester 4 credits each",
    "credits": "4",
    "format_type": "credit each",
    "length": "13 weeks each",
    "general_description": "I. Mathematics & Statistics : Distribution theory, stochastic models and multivariate transformations. Families of distributions including location-scale families, exponential families, convolution families, exponential dispersion models and hierarchical models. Concentration inequalities. Characteristic functions. Convergence in probability, almost surely, in Lp and in distribution. Laws of large numbers and Central Limit Theorem. Stochastic simulation. II. Mathematics & Statistics: Sampling theory (including large-sample theory). Likelihood functions and information matrices. Hypothesis testing, estimation theory. Regression and correlation theory.",
    "topics": "statistics",
    "subtopics": "advanced theory",
    "software": "",
    "prerequisites": "Advanced stats; MATH 357(fall)/MATH 556(winter)",
    "instructors": [
      {
        "name": "Masoud Asgharian-Dastenaei (Fall)/Abbas Khalili Mahmoudabadi (Winter)",
        "email": "masoud@math.mcgill.ca/abbas.khalili@mcgill.ca",
        "site": "http://www.math.mcgill.ca/asgharian/"
      }
    ],
    "open_to": "Open but usually just Statistics/Biostatistics graduate students",
    "feedback": "",
    "contact_instructors": "",
    "notes": "",
    "contacted_professor": false,
    "institution": "mcgill",
    "offered": {
      "url": "https://www.mcgill.ca/study/2020-2021/courses/math-556",
      "semesters": [
        "Fall 2020",
        "Summer 2021"
      ]
    }
  },
  {
    "code": "MATH 682",
    "title": "Reading Course in Statistics",
    "offered_by": "Mathematics and Statistics",
    "offered_recently": true,
    "target_audience": "Graduate students in QLS interested in taking graduate-level statistics courses. Prerequisites: good algebra and calculus.",
    "target_audience_coded": "graduate",
    "background": "Moderate",
    "format": "4 credit, one term course offered Fall 2017",
    "credits": "4",
    "format_type": "credit",
    "length": "13 weeks",
    "general_description": "Graduate level course covering probability and statistical inference. Roughly comparable to MATH323-324 Fall 2018",
    "topics": "statistics",
    "subtopics": "second level",
    "software": "",
    "prerequisites": "Calculus, Algebra",
    "instructors": [
      {
        "name": "Celia Greenwood or Russ Steele",
        "email": "celia.greenwood@mcgill.ca",
        "site": "https://www.mcgill.ca/epi-biostat-occh/celia-greenwood-1"
      }
    ],
    "open_to": "Open",
    "feedback": "",
    "contact_instructors": "",
    "notes": "",
    "contacted_professor": false,
    "institution": "mcgill",
    "offered": {
      "url": "https://www.mcgill.ca/study/2020-2021/courses/math-682",
      "semesters": [
        "Fall 2020",
        "Summer 2021"
      ]
    }
  },
  {
    "code": "NEUR 603",
    "title": "Computational neuroscience",
    "offered_by": "Neurology and Neurosurgery",
    "offered_recently": true,
    "target_audience": "Graduate students in biological and biomedical engineering",
    "target_audience_coded": "graduate",
    "background": "Expert",
    "format": "Winter semester 3 credits",
    "credits": "3",
    "format_type": "credit",
    "length": "13 weeks",
    "general_description": "Neurology and Neurosurgery (computational methods) : A survey of computational methods commonly used to model brain function, including mathematical modeling to describe the relationship between neuronal activity and perception, action, and cognition. Mathematical basis for vision, motor control and attention. Data relevant to brain processes and models explaining these data, using engineering, statistics and artificial intelligence.",
    "topics": "neuroscience",
    "subtopics": "computational neurscience",
    "software": "",
    "prerequisites": "Basic neuroanatomy/neurophysiology, mathematics (calculus, probability/statistics)",
    "instructors": [
      {
        "name": "Christopher Pack",
        "email": "christopher.pack@mcgill.ca",
        "site": "https://www.mcgill.ca/bbme/christopher-pack"
      }
    ],
    "open_to": "?",
    "feedback": "",
    "contact_instructors": "",
    "notes": "",
    "contacted_professor": false,
    "institution": "mcgill",
    "offered": null
  },
  {
    "code": "NEUR 608",
    "title": "Neuroimaging data science",
    "offered_by": "Neuroscience",
    "offered_recently": true,
    "target_audience": "Graduate students in neuroscience",
    "target_audience_coded": "graduate",
    "background": "Expert",
    "format": "Not currently offered",
    "credits": "3",
    "format_type": "credit",
    "length": "13 weeks",
    "general_description": "The increasing richness and complexity of neuroimaging data has changed the scope of neuroscience inquiry from an early focus on regions to connections/pathways and more recently to large-scale networks. As global initiatives in open science provide access to imaging and phenotypic data with ever-greater detail and depth, methods for directly relating neural connections and interactions to cognition, behavior and disease will become increasingly applicable. The proposed course integrates several vibrant and fast paced scientific disciplines (multimodal imaging, statistical learning, dynamical systems, network science), providing excellent educational opportunities for the next generation of scientists. The course will provide multiple learning elements, including didactic lectures, interactive discussions and critical analysis of recent original research articles, as well as hands-on programming/analysis sessions.",
    "topics": "neuroscience",
    "subtopics": "imaging",
    "software": "",
    "prerequisites": "?",
    "instructors": [
      {
        "name": "No professor associated",
        "email": null,
        "site": null
      }
    ],
    "open_to": "Open to students enrolled in the M.Sc. in Neuroscience or the Ph.D. in Neuroscience.",
    "feedback": "",
    "contact_instructors": "",
    "notes": "",
    "contacted_professor": false,
    "institution": "mcgill",
    "offered": {
      "url": "https://www.mcgill.ca/study/2020-2021/courses/neur-608",
      "semesters": [
        "Fall 2020",
        "Summer 2021"
      ]
    }
  },
  {
    "code": "PSYT 630",
    "title": "statistics in neuroscience",
    "offered_by": "Neuroscience",
    "offered_recently": true,
    "target_audience": "graduate students in neuroscience",
    "target_audience_coded": "graduate",
    "background": "Limited",
    "format": "offered in fall and winter. max 15-20",
    "credits": "3",
    "format_type": "credit",
    "length": "13 weeks",
    "general_description": "Psychiatry : Statistics needed for analysing the types of data generated in a laboratory setting, with emphasis on the neurosciences, will be covered. Hypothesis testing, parametric and non-parametric statistics will be studied with a practical approach, using data generated by the students. Computer analysis will be introduced.",
    "topics": "statistics",
    "subtopics": "basic",
    "software": "spss",
    "prerequisites": "None",
    "instructors": [
      {
        "name": "Joseph Rochford",
        "email": "joseph.rochford@mcgill.ca",
        "site": "https://douglas.research.mcgill.ca/joseph-rochford"
      }
    ],
    "open_to": "Open to graduate students (MSc and PHD) in all health science disciplines. Priority is given to students in the Neuroscience and Psychiatry grad programs.",
    "feedback": "",
    "contact_instructors": "",
    "notes": "Have syllabus",
    "contacted_professor": true,
    "institution": "mcgill",
    "offered": {
      "url": "https://www.mcgill.ca/study/2020-2021/courses/psyt-630",
      "semesters": [
        "Fall 2020",
        "Winter 2021",
        "Summer 2021"
      ]
    }
  },
  {
    "code": "BTEC 501",
    "title": "Bioinformatics",
    "offered_by": "Parasitology",
    "offered_recently": true,
    "target_audience": "Undergraduate students in microbiology and biotechnology Graduate students in biotechnology, cell biology",
    "target_audience_coded": "undergraduate and graduate",
    "background": "Limited",
    "format": "Fall semester 3 credits",
    "credits": "3",
    "format_type": "credit",
    "length": "13 weeks",
    "general_description": "Biotechnology : This course introduces the application of computer software for analysis of biological sequence information. An emphasis is placed on the biological theory behind analytical techniques, the algorithms used and methods of developing a statistical framework for various types of analysis.",
    "topics": "bioinformatics",
    "subtopics": "bioinformatics tools",
    "software": "",
    "prerequisites": "LSCI 202 or LSCI 204 and ANSC 326",
    "instructors": [
      {
        "name": "Jianguo Xia",
        "email": "jianguo.xia@mcgill.ca",
        "site": "https://www.mcgill.ca/parasitology/faculty/jianguo-jeff-xia"
      }
    ],
    "open_to": "Enrolled in Biotechnology program (~30), and can usually accommodate have 10 more graduates students. Not open to students who have taken BINF 301.",
    "feedback": "",
    "contact_instructors": "",
    "notes": "Have syllabus",
    "contacted_professor": true,
    "institution": "mcgill",
    "offered": {
      "url": "https://www.mcgill.ca/study/2020-2021/courses/btec-501",
      "semesters": [
        "Fall 2020",
        "Summer 2021"
      ]
    }
  },
  {
    "code": "PHYS 519",
    "title": "Advanced Biophysics",
    "offered_by": "Physics",
    "offered_recently": true,
    "target_audience": "Undergraduate students in biology, mathematics, physics, physiology Graduate students in biological engineering",
    "target_audience_coded": "undergraduate",
    "background": "Expert",
    "format": "Winter semester 3 credits",
    "credits": "3",
    "format_type": "credit",
    "length": "13 weeks",
    "general_description": "Biophysics : An advanced biophysics course, with a special emphasis on stochastic and out of equilibrium physical processes in living matter.",
    "topics": "biophysics",
    "subtopics": "stochastic processes",
    "software": "",
    "prerequisites": "PHYS 333 or PHYS 362 and PHYS 340 or PHYS 350",
    "instructors": [
      {
        "name": "Paul Francois",
        "email": "paul.francois2@mcgill.ca",
        "site": "https://www.mcgill.ca/francois-group/"
      }
    ],
    "open_to": "",
    "feedback": "",
    "contact_instructors": "",
    "notes": "",
    "contacted_professor": false,
    "institution": "mcgill",
    "offered": {
      "url": "https://www.mcgill.ca/study/2020-2021/courses/phys-519",
      "semesters": [
        "Winter 2021",
        "Summer 2021"
      ]
    }
  },
  {
    "code": "BINF 511",
    "title": "Bioinformatics for Genomics",
    "offered_by": "Plant Sciences",
    "offered_recently": true,
    "target_audience": "Undergraduate students in Environmental Sciences, Life sciences Graduate students in bioinformatics, biotechnology, biomedical engineering, plant science",
    "target_audience_coded": "undergraduate and graduate",
    "background": "Moderate",
    "format": "3 credits Winter semester",
    "credits": "3",
    "format_type": "credit",
    "length": "13 weeks",
    "general_description": "Bioinformatics : Bioinformatics methods and reasoning in relation to genomics, proteomics and metabolomics strategies with an emphasis on functional genomics data. The course will cover introduction to UNIX, Perl programming, data processing and integration, file parsing, relational database design and implementation, angled towards solutions relevant for genomics.",
    "topics": "bioinformatics",
    "subtopics": "bioinformatics programming",
    "software": "",
    "prerequisites": "Cell and molecular biology",
    "instructors": [
      {
        "name": "Martina Stromvik",
        "email": "martina.stromvik@mcgill.ca",
        "site": "https://www.mcgill.ca/plant/faculty/stromvik"
      }
    ],
    "open_to": "",
    "feedback": "",
    "contact_instructors": "",
    "notes": "",
    "contacted_professor": true,
    "institution": "mcgill",
    "offered": {
      "url": "https://www.mcgill.ca/study/2020-2021/courses/binf-511",
      "semesters": [
        "Winter 2021",
        "Summer 2021"
      ]
    }
  },
  {
    "code": "BINF 621",
    "title": "Bioinformatics: Molecular Biology",
    "offered_by": "Plant Sciences",
    "offered_recently": true,
    "target_audience": "Graduate Option in Bioinformatics",
    "target_audience_coded": "graduate",
    "background": "Moderate",
    "format": "Winter semester 3 credits *limited to 30 students*",
    "credits": "3",
    "format_type": "credit",
    "length": "13 weeks",
    "general_description": "Bioinformatics : The main problems related to the analysis of biological sequences (sequence comparison, homology, gene annotation, phylogenetic inference, comparative genomics) and the computational approaches (dynamic programming algorithms, Blast heuristics, hidden Markov models, Bayesian statistics).",
    "topics": "comp bio",
    "subtopics": "bioinformatics tools",
    "software": "",
    "prerequisites": "Basic CS",
    "instructors": [
      {
        "name": "Martina Stromvik",
        "email": "martina.stromvik@mcgill.ca",
        "site": "https://www.mcgill.ca/plant/faculty/stromvik"
      }
    ],
    "open_to": "Bioinformatics option or by permission from the course coordinators only.",
    "feedback": "",
    "contact_instructors": "",
    "notes": "",
    "contacted_professor": true,
    "institution": "mcgill",
    "offered": {
      "url": "https://www.mcgill.ca/study/2020-2021/courses/binf-621",
      "semesters": [
        "Winter 2021",
        "Summer 2021"
      ]
    }
  }
]